# Blender MTL File: 'None'
# Material Count: 2

newmtl material_0_16
Ns 92.156863
Ka 0.000000 0.000000 0.000000
Kd 0.622431 0.622431 0.640000
Ks 0.500000 0.500000 0.500000
Ni 1.000000
d 1.000000
illum 2

newmtl material_4_16
Ns 92.156863
Ka 0.000000 0.000000 0.000000
Kd 0.640000 0.640000 0.577255
Ks 0.500000 0.500000 0.500000
Ni 1.000000
d 1.000000
illum 2
