# Blender v2.69 (sub 0) OBJ File: 'round-2.blend'
# www.blender.org
mtllib round.mtl
g Cylinder
v 0.000000 -0.300000 -1.000000
v 0.195090 -0.300000 -0.980785
v 0.382683 -0.300000 -0.923880
v 0.555570 -0.300000 -0.831470
v 0.707107 -0.300000 -0.707107
v 0.831470 -0.300000 -0.555570
v 0.923880 -0.300000 -0.382683
v 0.980785 -0.300000 -0.195090
v 1.000000 -0.300000 -0.000000
v 0.980785 -0.300000 0.195090
v 0.923880 -0.300000 0.382683
v 0.831470 -0.300000 0.555570
v 0.707107 -0.300000 0.707107
v 0.555570 -0.300000 0.831470
v 0.382683 -0.300000 0.923880
v 0.195090 -0.300000 0.980785
v -0.000000 -0.300000 1.000000
v -0.195091 -0.300000 0.980785
v -0.382684 -0.300000 0.923879
v -0.555571 -0.300000 0.831469
v -0.707107 -0.300000 0.707106
v -0.831470 -0.300000 0.555570
v -0.923880 -0.300000 0.382683
v -0.980785 -0.300000 0.195089
v -1.000000 -0.300000 -0.000001
v -0.980785 -0.300000 -0.195091
v -0.923879 -0.300000 -0.382684
v -0.831469 -0.300000 -0.555571
v -0.707106 -0.300000 -0.707108
v -0.555569 -0.300000 -0.831470
v -0.382682 -0.300000 -0.923880
v -0.195089 -0.300000 -0.980786
v 0.000000 0.125000 -1.000000
v 0.000000 0.300000 -0.748790
v 0.000000 0.168176 -0.987391
v 0.000000 0.239084 -0.951544
v 0.000000 0.275676 -0.895969
v 0.000000 0.291329 -0.826105
v 0.195090 0.125000 -0.980785
v 0.146082 0.300000 -0.734403
v 0.192630 0.168176 -0.968419
v 0.185637 0.239084 -0.933261
v 0.174795 0.275676 -0.878753
v 0.161165 0.291329 -0.810231
v 0.382683 0.125000 -0.923880
v 0.286550 0.300000 -0.691792
v 0.377858 0.168176 -0.912230
v 0.364140 0.239084 -0.879112
v 0.342872 0.275676 -0.827767
v 0.316137 0.291329 -0.763221
v 0.555570 0.125000 -0.831470
v 0.416006 0.300000 -0.622596
v 0.548565 0.168176 -0.820986
v 0.528650 0.239084 -0.791180
v 0.497774 0.275676 -0.744971
v 0.458959 0.291329 -0.686881
v 0.707107 0.125000 -0.707107
v 0.529475 0.300000 -0.529475
v 0.698191 0.168176 -0.698191
v 0.672844 0.239084 -0.672843
v 0.633546 0.275676 -0.633546
v 0.584144 0.291329 -0.584144
v 0.831470 0.125000 -0.555570
v 0.622597 0.300000 -0.416005
v 0.820986 0.168176 -0.548565
v 0.791180 0.239084 -0.528650
v 0.744971 0.275676 -0.497773
v 0.686881 0.291329 -0.458959
v 0.923880 0.125000 -0.382683
v 0.691792 0.300000 -0.286550
v 0.912230 0.168176 -0.377858
v 0.879112 0.239084 -0.364140
v 0.827767 0.275676 -0.342872
v 0.763221 0.291329 -0.316136
v 0.980785 0.125000 -0.195090
v 0.734403 0.300000 -0.146082
v 0.968419 0.168176 -0.192630
v 0.933261 0.239084 -0.185637
v 0.878753 0.275676 -0.174795
v 0.810231 0.291329 -0.161165
v 1.000000 0.125000 -0.000000
v 0.748790 0.300000 -0.000000
v 0.987391 0.168176 -0.000000
v 0.951544 0.239084 -0.000000
v 0.895969 0.275676 -0.000000
v 0.826105 0.291329 -0.000000
v 0.980785 0.125000 0.195090
v 0.734403 0.300000 0.146081
v 0.968419 0.168176 0.192630
v 0.933261 0.239084 0.185637
v 0.878753 0.275676 0.174795
v 0.810231 0.291329 0.161165
v 0.923880 0.125000 0.382683
v 0.691792 0.300000 0.286550
v 0.912230 0.168176 0.377858
v 0.879112 0.239084 0.364140
v 0.827767 0.275676 0.342872
v 0.763221 0.291329 0.316136
v 0.831470 0.125000 0.555570
v 0.622597 0.300000 0.416005
v 0.820986 0.168176 0.548565
v 0.791180 0.239084 0.528650
v 0.744971 0.275676 0.497773
v 0.686881 0.291329 0.458959
v 0.707107 0.125000 0.707107
v 0.529475 0.300000 0.529475
v 0.698191 0.168176 0.698191
v 0.672844 0.239084 0.672843
v 0.633546 0.275676 0.633546
v 0.584144 0.291329 0.584144
v 0.555570 0.125000 0.831470
v 0.416005 0.300000 0.622597
v 0.548565 0.168176 0.820986
v 0.528650 0.239084 0.791180
v 0.497773 0.275676 0.744971
v 0.458959 0.291329 0.686881
v 0.382683 0.125000 0.923880
v 0.286550 0.300000 0.691792
v 0.377858 0.168176 0.912231
v 0.364140 0.239084 0.879113
v 0.342872 0.275676 0.827767
v 0.316136 0.291329 0.763221
v 0.195090 0.125000 0.980785
v 0.146082 0.300000 0.734403
v 0.192630 0.168176 0.968419
v 0.185637 0.239084 0.933261
v 0.174795 0.275676 0.878753
v 0.161165 0.291329 0.810231
v -0.000000 0.125000 1.000000
v -0.000000 0.300000 0.748790
v -0.000000 0.168176 0.987391
v -0.000000 0.239084 0.951544
v -0.000000 0.275676 0.895969
v -0.000000 0.291329 0.826105
v -0.195091 0.125000 0.980785
v -0.146082 0.300000 0.734402
v -0.192631 0.168176 0.968419
v -0.185637 0.239084 0.933261
v -0.174795 0.275676 0.878753
v -0.161165 0.291329 0.810231
v -0.382684 0.125000 0.923879
v -0.286550 0.300000 0.691792
v -0.377859 0.168176 0.912230
v -0.364141 0.239084 0.879112
v -0.342873 0.275676 0.827767
v -0.316137 0.291329 0.763221
v -0.555571 0.125000 0.831469
v -0.416006 0.300000 0.622596
v -0.548566 0.168176 0.820985
v -0.528650 0.239084 0.791180
v -0.497774 0.275676 0.744971
v -0.458959 0.291329 0.686881
v -0.707107 0.125000 0.707106
v -0.529475 0.300000 0.529474
v -0.698191 0.168176 0.698191
v -0.672844 0.239084 0.672843
v -0.633546 0.275676 0.633545
v -0.584144 0.291329 0.584144
v -0.831470 0.125000 0.555570
v -0.622597 0.300000 0.416005
v -0.820986 0.168176 0.548565
v -0.791181 0.239084 0.528649
v -0.744971 0.275676 0.497773
v -0.686881 0.291329 0.458959
v -0.923880 0.125000 0.382683
v -0.691792 0.300000 0.286549
v -0.912231 0.168176 0.377857
v -0.879113 0.239084 0.364140
v -0.827767 0.275676 0.342872
v -0.763221 0.291329 0.316136
v -0.980785 0.125000 0.195089
v -0.734403 0.300000 0.146081
v -0.968419 0.168176 0.192630
v -0.933261 0.239084 0.185636
v -0.878753 0.275676 0.174794
v -0.810231 0.291329 0.161164
v -1.000000 0.125000 -0.000001
v -0.748790 0.300000 -0.000001
v -0.987391 0.168176 -0.000001
v -0.951544 0.239084 -0.000001
v -0.895969 0.275676 -0.000001
v -0.826105 0.291329 -0.000001
v -0.980785 0.125000 -0.195091
v -0.734402 0.300000 -0.146083
v -0.968418 0.168176 -0.192631
v -0.933261 0.239084 -0.185638
v -0.878753 0.275676 -0.174796
v -0.810231 0.291329 -0.161166
v -0.923879 0.125000 -0.382684
v -0.691792 0.300000 -0.286550
v -0.912230 0.168176 -0.377859
v -0.879112 0.239084 -0.364141
v -0.827767 0.275676 -0.342873
v -0.763221 0.291329 -0.316137
v -0.831469 0.125000 -0.555571
v -0.622596 0.300000 -0.416006
v -0.820985 0.168176 -0.548566
v -0.791180 0.239084 -0.528651
v -0.744970 0.275676 -0.497775
v -0.686880 0.291329 -0.458960
v -0.707106 0.125000 -0.707108
v -0.529474 0.300000 -0.529475
v -0.698190 0.168176 -0.698192
v -0.672843 0.239084 -0.672844
v -0.633545 0.275676 -0.633546
v -0.584143 0.291329 -0.584145
v -0.555569 0.125000 -0.831470
v -0.416005 0.300000 -0.622597
v -0.548564 0.168176 -0.820986
v -0.528649 0.239084 -0.791181
v -0.497772 0.275676 -0.744972
v -0.458958 0.291329 -0.686882
v -0.382682 0.125000 -0.923880
v -0.286549 0.300000 -0.691792
v -0.377857 0.168176 -0.912231
v -0.364139 0.239084 -0.879113
v -0.342871 0.275676 -0.827768
v -0.316136 0.291329 -0.763222
v -0.195089 0.125000 -0.980786
v -0.146080 0.300000 -0.734403
v -0.192629 0.168176 -0.968419
v -0.185636 0.239084 -0.933261
v -0.174793 0.275676 -0.878753
v -0.161164 0.291329 -0.810231
vt 0.402456 0.009607
vt 0.413936 0.067326
vt 0.500000 0.000000
vt 0.691342 0.038060
vt 0.668821 0.092430
vt 0.777785 0.084265
vt 0.745090 0.133197
vt 0.853554 0.146447
vt 0.811940 0.188060
vt 0.915735 0.222215
vt 0.866803 0.254910
vt 0.961940 0.308658
vt 0.907570 0.331179
vt 0.990393 0.402455
vt 0.932674 0.413936
vt 1.000000 0.500000
vt 0.941151 0.500000
vt 0.990393 0.597545
vt 0.932674 0.586064
vt 0.961940 0.691342
vt 0.907570 0.668821
vt 0.915735 0.777785
vt 0.866803 0.745090
vt 0.853554 0.853553
vt 0.811940 0.811940
vt 0.777785 0.915735
vt 0.745090 0.866803
vt 0.691342 0.961940
vt 0.668821 0.907570
vt 0.597545 0.990392
vt 0.586064 0.932674
vt 0.500000 1.000000
vt 0.500000 0.941150
vt 0.402455 0.990392
vt 0.413936 0.932674
vt 0.308658 0.961940
vt 0.331179 0.907570
vt 0.222215 0.915734
vt 0.254910 0.866803
vt 0.146446 0.853553
vt 0.188059 0.811940
vt 0.084265 0.777785
vt 0.133197 0.745089
vt 0.038060 0.691341
vt 0.092430 0.668821
vt 0.009607 0.597545
vt 0.067326 0.586064
vt 0.000000 0.499999
vt 0.058849 0.499999
vt 0.009607 0.402454
vt 0.067326 0.413935
vt 0.038060 0.308658
vt 0.092430 0.331179
vt 0.084265 0.222214
vt 0.133197 0.254909
vt 0.146447 0.146446
vt 0.188060 0.188059
vt 0.222215 0.084265
vt 0.254910 0.133196
vt 0.308659 0.038060
vt 0.331180 0.092430
vt 0.597545 0.009607
vt 0.586064 0.067326
vt 0.561465 0.190994
vt 0.500000 0.184940
vt 0.620568 0.208923
vt 0.500000 0.058850
vt 0.583975 0.077830
vt 0.500000 0.069559
vt 0.579386 0.100901
vt 0.500000 0.093082
vt 0.574022 0.127866
vt 0.500000 0.120576
vt 0.567967 0.158306
vt 0.500000 0.151611
vt 0.664723 0.102324
vt 0.655721 0.124057
vt 0.645199 0.149458
vt 0.633322 0.178131
vt 0.739140 0.142101
vt 0.726071 0.161660
vt 0.710797 0.184520
vt 0.693554 0.210325
vt 0.675038 0.238037
vt 0.804368 0.195632
vt 0.787734 0.212266
vt 0.768293 0.231707
vt 0.746348 0.253652
vt 0.857899 0.260860
vt 0.838340 0.273928
vt 0.815480 0.289203
vt 0.789675 0.306446
vt 0.761963 0.324962
vt 0.897676 0.335277
vt 0.875943 0.344279
vt 0.850542 0.354801
vt 0.821869 0.366677
vt 0.791078 0.379432
vt 0.922170 0.416025
vt 0.899099 0.420614
vt 0.872134 0.425978
vt 0.841694 0.432033
vt 0.809006 0.438535
vt 0.930441 0.500000
vt 0.906918 0.500000
vt 0.879424 0.500000
vt 0.848388 0.500000
vt 0.815060 0.500000
vt 0.922170 0.583975
vt 0.899099 0.579386
vt 0.872134 0.574022
vt 0.841694 0.567967
vt 0.809006 0.561465
vt 0.897676 0.664723
vt 0.875943 0.655721
vt 0.850542 0.645199
vt 0.821869 0.633322
vt 0.791078 0.620568
vt 0.857899 0.739140
vt 0.838340 0.726071
vt 0.815480 0.710796
vt 0.789675 0.693554
vt 0.761963 0.675038
vt 0.804368 0.804368
vt 0.787734 0.787734
vt 0.768293 0.768293
vt 0.746348 0.746348
vt 0.722781 0.722781
vt 0.739140 0.857899
vt 0.726071 0.838340
vt 0.710797 0.815480
vt 0.693554 0.789674
vt 0.675038 0.761963
vt 0.664723 0.897676
vt 0.655721 0.875943
vt 0.645199 0.850542
vt 0.633322 0.821869
vt 0.620568 0.791077
vt 0.583975 0.922170
vt 0.579386 0.899099
vt 0.574022 0.872134
vt 0.567967 0.841694
vt 0.561465 0.809006
vt 0.500000 0.930441
vt 0.500000 0.906918
vt 0.500000 0.879424
vt 0.500000 0.848388
vt 0.500000 0.815060
vt 0.416025 0.922170
vt 0.420614 0.899099
vt 0.425978 0.872134
vt 0.432033 0.841694
vt 0.438535 0.809006
vt 0.335277 0.897675
vt 0.344279 0.875943
vt 0.354800 0.850542
vt 0.366677 0.821869
vt 0.379432 0.791077
vt 0.260859 0.857898
vt 0.273928 0.838340
vt 0.289203 0.815480
vt 0.306446 0.789674
vt 0.324962 0.761963
vt 0.195632 0.804368
vt 0.212265 0.787734
vt 0.231706 0.768293
vt 0.253652 0.746348
vt 0.277219 0.722781
vt 0.142101 0.739140
vt 0.161660 0.726071
vt 0.184520 0.710796
vt 0.210325 0.693554
vt 0.238037 0.675038
vt 0.102324 0.664722
vt 0.124057 0.655720
vt 0.149458 0.645199
vt 0.178131 0.633322
vt 0.208922 0.620568
vt 0.077829 0.583974
vt 0.100901 0.579385
vt 0.127866 0.574022
vt 0.158306 0.567967
vt 0.190994 0.561465
vt 0.069559 0.499999
vt 0.093082 0.500000
vt 0.120576 0.500000
vt 0.151611 0.500000
vt 0.184940 0.500000
vt 0.077830 0.416025
vt 0.100901 0.420614
vt 0.127866 0.425978
vt 0.158306 0.432032
vt 0.190994 0.438534
vt 0.102324 0.335277
vt 0.124057 0.344279
vt 0.149458 0.354800
vt 0.178131 0.366677
vt 0.208923 0.379431
vt 0.142101 0.260859
vt 0.161660 0.273928
vt 0.184520 0.289203
vt 0.210326 0.306445
vt 0.238037 0.324962
vt 0.195632 0.195632
vt 0.212266 0.212265
vt 0.231707 0.231706
vt 0.253652 0.253652
vt 0.277219 0.277219
vt 0.260860 0.142101
vt 0.273929 0.161660
vt 0.289204 0.184520
vt 0.306446 0.210325
vt 0.324962 0.238037
vt 0.335278 0.102324
vt 0.344280 0.124057
vt 0.354801 0.149457
vt 0.366678 0.178131
vt 0.379432 0.208922
vt 0.416026 0.077830
vt 0.420615 0.100901
vt 0.425979 0.127866
vt 0.432033 0.158306
vt 0.438535 0.190994
vt 0.722781 0.277219
vn -0.142003 -0.685690 -0.713889
vn -0.193152 0.140355 -0.971068
vn 0.000000 -0.685690 -0.727866
vn 0.278542 -0.685690 -0.672475
vn 0.378887 0.140355 -0.914731
vn 0.404370 -0.685690 -0.605213
vn 0.550066 0.140355 -0.823237
vn 0.514664 -0.685690 -0.514664
vn 0.700095 0.140355 -0.700095
vn 0.605213 -0.685690 -0.404370
vn 0.823237 0.140355 -0.550066
vn 0.672475 -0.685690 -0.278542
vn 0.914731 0.140355 -0.378887
vn 0.713889 -0.685690 -0.142003
vn 0.971068 0.140355 -0.193152
vn 0.727866 -0.685690 0.000000
vn 0.990081 0.140355 0.000000
vn 0.713889 -0.685690 0.142003
vn 0.971068 0.140355 0.193152
vn 0.672475 -0.685690 0.278542
vn 0.914731 0.140355 0.378887
vn 0.605213 -0.685690 0.404370
vn 0.823237 0.140355 0.550066
vn 0.514664 -0.685690 0.514664
vn 0.700095 0.140355 0.700095
vn 0.404370 -0.685690 0.605213
vn 0.550066 0.140355 0.823237
vn 0.278542 -0.685690 0.672475
vn 0.378887 0.140355 0.914731
vn 0.142003 -0.685690 0.713889
vn 0.193152 0.140355 0.971068
vn 0.000000 -0.685690 0.727866
vn 0.000000 0.140355 0.990081
vn -0.142003 -0.685690 0.713889
vn -0.193152 0.140355 0.971068
vn -0.278542 -0.685690 0.672475
vn -0.378887 0.140355 0.914731
vn -0.404370 -0.685690 0.605213
vn -0.550066 0.140355 0.823237
vn -0.514664 -0.685690 0.514664
vn -0.700095 0.140355 0.700095
vn -0.605213 -0.685690 0.404370
vn -0.823237 0.140355 0.550066
vn -0.672475 -0.685690 0.278542
vn -0.914731 0.140355 0.378887
vn -0.713889 -0.685690 0.142003
vn -0.971068 0.140355 0.193152
vn -0.727866 -0.685690 0.000000
vn -0.990081 0.140355 0.000000
vn -0.713889 -0.685690 -0.142003
vn -0.971068 0.140355 -0.193152
vn -0.672475 -0.685690 -0.278542
vn -0.914731 0.140355 -0.378887
vn -0.605213 -0.685690 -0.404370
vn -0.823237 0.140355 -0.550066
vn -0.514664 -0.685690 -0.514695
vn -0.700095 0.140355 -0.700095
vn -0.404370 -0.685690 -0.605213
vn -0.550066 0.140355 -0.823237
vn -0.278542 -0.685690 -0.672475
vn -0.378887 0.140355 -0.914731
vn 0.142003 -0.685690 -0.713889
vn 0.193152 0.140355 -0.971068
vn 0.011567 0.998230 -0.058138
vn 0.000000 0.998230 -0.059267
vn 0.022675 0.998230 -0.054750
vn 0.000000 0.140355 -0.990081
vn 0.181585 0.365337 -0.912961
vn 0.000000 0.365337 -0.930845
vn 0.146947 0.657704 -0.738762
vn 0.000000 0.657704 -0.753258
vn 0.078036 0.916471 -0.392407
vn 0.000000 0.916471 -0.400098
vn 0.032868 0.985687 -0.165319
vn 0.000000 0.985687 -0.168554
vn 0.356212 0.365337 -0.859981
vn 0.288247 0.657704 -0.695914
vn 0.153081 0.916471 -0.369640
vn 0.064486 0.985687 -0.155736
vn 0.517136 0.365337 -0.773980
vn 0.418470 0.657704 -0.626301
vn 0.222266 0.916471 -0.332652
vn 0.093631 0.985687 -0.140172
vn 0.032929 0.998230 -0.049287
vn 0.658223 0.365337 -0.658223
vn 0.532609 0.657704 -0.532609
vn 0.282907 0.916471 -0.282907
vn 0.119205 0.985687 -0.119205
vn 0.773980 0.365337 -0.517136
vn 0.626301 0.657704 -0.418470
vn 0.332652 0.916471 -0.222266
vn 0.140172 0.985687 -0.093631
vn 0.049287 0.998230 -0.032929
vn 0.859981 0.365337 -0.356212
vn 0.695914 0.657704 -0.288247
vn 0.369640 0.916471 -0.153111
vn 0.155736 0.985687 -0.064486
vn 0.054750 0.998230 -0.022675
vn 0.912961 0.365337 -0.181585
vn 0.738762 0.657704 -0.146947
vn 0.392407 0.916471 -0.078036
vn 0.165319 0.985687 -0.032868
vn 0.058138 0.998230 -0.011567
vn 0.930845 0.365337 0.000000
vn 0.753258 0.657704 0.000000
vn 0.400098 0.916471 0.000000
vn 0.168554 0.985687 0.000000
vn 0.059267 0.998230 0.000000
vn 0.912961 0.365337 0.181585
vn 0.738762 0.657704 0.146947
vn 0.392407 0.916471 0.078036
vn 0.165319 0.985687 0.032868
vn 0.058138 0.998230 0.011536
vn 0.859981 0.365337 0.356212
vn 0.695914 0.657704 0.288247
vn 0.369640 0.916471 0.153111
vn 0.155736 0.985687 0.064486
vn 0.054750 0.998230 0.022675
vn 0.773980 0.365337 0.517136
vn 0.626301 0.657704 0.418470
vn 0.332652 0.916471 0.222266
vn 0.140172 0.985687 0.093631
vn 0.049287 0.998230 0.032929
vn 0.658223 0.365337 0.658223
vn 0.532609 0.657704 0.532609
vn 0.282907 0.916471 0.282907
vn 0.119205 0.985687 0.119205
vn 0.041902 0.998230 0.041902
vn 0.517136 0.365337 0.773980
vn 0.418470 0.657704 0.626301
vn 0.222266 0.916471 0.332652
vn 0.093631 0.985687 0.140172
vn 0.032929 0.998230 0.049287
vn 0.356212 0.365337 0.859981
vn 0.288247 0.657704 0.695914
vn 0.153111 0.916471 0.369640
vn 0.064486 0.985687 0.155736
vn 0.022675 0.998230 0.054750
vn 0.181585 0.365337 0.912961
vn 0.146947 0.657704 0.738762
vn 0.078036 0.916471 0.392407
vn 0.032868 0.985687 0.165319
vn 0.011567 0.998230 0.058138
vn 0.000000 0.365337 0.930845
vn 0.000000 0.657704 0.753258
vn 0.000000 0.916471 0.400098
vn 0.000000 0.985687 0.168554
vn 0.000000 0.998230 0.059267
vn -0.181585 0.365337 0.912961
vn -0.146947 0.657704 0.738762
vn -0.078036 0.916471 0.392407
vn -0.032868 0.985687 0.165319
vn -0.011567 0.998230 0.058138
vn -0.356212 0.365337 0.859981
vn -0.288247 0.657704 0.695914
vn -0.153111 0.916471 0.369640
vn -0.064486 0.985687 0.155736
vn -0.022675 0.998230 0.054750
vn -0.517136 0.365337 0.773980
vn -0.418470 0.657704 0.626301
vn -0.222266 0.916471 0.332652
vn -0.093631 0.985687 0.140172
vn -0.032929 0.998230 0.049287
vn -0.658223 0.365337 0.658223
vn -0.532609 0.657704 0.532609
vn -0.282907 0.916471 0.282907
vn -0.119205 0.985687 0.119205
vn -0.041902 0.998230 0.041902
vn -0.773980 0.365337 0.517136
vn -0.626301 0.657704 0.418470
vn -0.332652 0.916471 0.222266
vn -0.140172 0.985687 0.093631
vn -0.049287 0.998230 0.032929
vn -0.859981 0.365337 0.356212
vn -0.695914 0.657704 0.288247
vn -0.369640 0.916471 0.153081
vn -0.155736 0.985687 0.064486
vn -0.054750 0.998230 0.022675
vn -0.912961 0.365337 0.181585
vn -0.738762 0.657704 0.146947
vn -0.392407 0.916471 0.078036
vn -0.165319 0.985687 0.032868
vn -0.058138 0.998230 0.011567
vn -0.930845 0.365337 0.000000
vn -0.753258 0.657704 0.000000
vn -0.400098 0.916471 0.000000
vn -0.168554 0.985687 0.000000
vn -0.059267 0.998230 0.000000
vn -0.912961 0.365337 -0.181585
vn -0.738762 0.657704 -0.146947
vn -0.392407 0.916471 -0.078036
vn -0.165319 0.985687 -0.032868
vn -0.058138 0.998230 -0.011567
vn -0.859981 0.365337 -0.356212
vn -0.695914 0.657704 -0.288247
vn -0.369640 0.916471 -0.153111
vn -0.155736 0.985687 -0.064486
vn -0.054750 0.998230 -0.022675
vn -0.773980 0.365337 -0.517136
vn -0.626301 0.657704 -0.418470
vn -0.332652 0.916471 -0.222266
vn -0.140172 0.985687 -0.093631
vn -0.049287 0.998230 -0.032929
vn -0.658193 0.365337 -0.658223
vn -0.532609 0.657704 -0.532609
vn -0.282907 0.916471 -0.282907
vn -0.119205 0.985687 -0.119205
vn -0.041902 0.998230 -0.041902
vn -0.517136 0.365337 -0.773980
vn -0.418470 0.657704 -0.626301
vn -0.222266 0.916471 -0.332652
vn -0.093631 0.985687 -0.140172
vn -0.032929 0.998230 -0.049287
vn -0.356212 0.365337 -0.859981
vn -0.288247 0.657704 -0.695914
vn -0.153081 0.916471 -0.369640
vn -0.064486 0.985687 -0.155736
vn -0.022675 0.998230 -0.054750
vn -0.181585 0.365337 -0.912961
vn -0.146947 0.657704 -0.738762
vn -0.078036 0.916471 -0.392407
vn -0.032868 0.985687 -0.165319
vn -0.011536 0.998230 -0.058138
vn 0.041902 0.998230 -0.041902
usemtl Material
s 1
f 32/1/1 219/2/2 1/3/3
f 3/4/4 45/5/5 4/6/6
f 4/6/6 51/7/7 5/8/8
f 5/8/8 57/9/9 6/10/10
f 6/10/10 63/11/11 7/12/12
f 7/12/12 69/13/13 8/14/14
f 8/14/14 75/15/15 9/16/16
f 9/16/16 81/17/17 10/18/18
f 10/18/18 87/19/19 11/20/20
f 11/20/20 93/21/21 12/22/22
f 12/22/22 99/23/23 13/24/24
f 13/24/24 105/25/25 14/26/26
f 14/26/26 111/27/27 15/28/28
f 15/28/28 117/29/29 16/30/30
f 16/30/30 123/31/31 17/32/32
f 17/32/32 129/33/33 18/34/34
f 18/34/34 135/35/35 19/36/36
f 19/36/36 141/37/37 20/38/38
f 20/38/38 147/39/39 21/40/40
f 21/40/40 153/41/41 22/42/42
f 22/42/42 159/43/43 23/44/44
f 23/44/44 165/45/45 24/46/46
f 24/46/46 171/47/47 25/48/48
f 25/48/48 177/49/49 26/50/50
f 26/50/50 183/51/51 27/52/52
f 27/52/52 189/53/53 28/54/54
f 28/54/54 195/55/55 29/56/56
f 29/56/56 201/57/57 30/58/58
f 30/58/58 207/59/59 31/60/60
f 31/60/60 213/61/61 32/1/1
f 2/62/62 39/63/63 3/4/4
f 40/64/64 34/65/65 46/66/66
f 1/3/3 2/62/62 32/1/1
f 39/63/63 33/67/67 41/68/68
f 41/68/68 35/69/69 42/70/70
f 42/70/70 36/71/71 43/72/72
f 43/72/72 37/73/73 44/74/74
f 44/74/74 38/75/75 40/64/64
f 45/5/5 39/63/63 47/76/76
f 47/76/76 41/68/68 48/77/77
f 48/77/77 42/70/70 49/78/78
f 49/78/78 43/72/72 50/79/79
f 50/79/79 44/74/74 46/66/66
f 51/7/7 45/5/5 53/80/80
f 53/80/80 47/76/76 48/77/77
f 54/81/81 48/77/77 55/82/82
f 55/82/82 49/78/78 56/83/83
f 56/83/83 50/79/79 52/84/84
f 57/9/9 51/7/7 59/85/85
f 59/85/85 53/80/80 60/86/86
f 60/86/86 54/81/81 61/87/87
f 61/87/87 55/82/82 62/88/88
f 62/88/88 56/83/83 52/84/84
f 63/11/11 57/9/9 65/89/89
f 65/89/89 59/85/85 66/90/90
f 66/90/90 60/86/86 67/91/91
f 67/91/91 61/87/87 68/92/92
f 68/92/92 62/88/88 64/93/93
f 69/13/13 63/11/11 71/94/94
f 71/94/94 65/89/89 72/95/95
f 72/95/95 66/90/90 73/96/96
f 73/96/96 67/91/91 74/97/97
f 74/97/97 68/92/92 70/98/98
f 75/15/15 69/13/13 77/99/99
f 77/99/99 71/94/94 78/100/100
f 78/100/100 72/95/95 79/101/101
f 79/101/101 73/96/96 80/102/102
f 80/102/102 74/97/97 76/103/103
f 81/17/17 75/15/15 83/104/104
f 83/104/104 77/99/99 84/105/105
f 84/105/105 78/100/100 85/106/106
f 85/106/106 79/101/101 86/107/107
f 86/107/107 80/102/102 82/108/108
f 87/19/19 81/17/17 89/109/109
f 89/109/109 83/104/104 90/110/110
f 90/110/110 84/105/105 91/111/111
f 91/111/111 85/106/106 86/107/107
f 92/112/112 86/107/107 88/113/113
f 93/21/21 87/19/19 95/114/114
f 95/114/114 89/109/109 96/115/115
f 96/115/115 90/110/110 97/116/116
f 97/116/116 91/111/111 98/117/117
f 98/117/117 92/112/112 94/118/118
f 99/23/23 93/21/21 101/119/119
f 101/119/119 95/114/114 96/115/115
f 102/120/120 96/115/115 103/121/121
f 103/121/121 97/116/116 98/117/117
f 104/122/122 98/117/117 100/123/123
f 105/25/25 99/23/23 107/124/124
f 107/124/124 101/119/119 102/120/120
f 108/125/125 102/120/120 109/126/126
f 109/126/126 103/121/121 104/122/122
f 110/127/127 104/122/122 106/128/128
f 111/27/27 105/25/25 113/129/129
f 113/129/129 107/124/124 114/130/130
f 114/130/130 108/125/125 115/131/131
f 115/131/131 109/126/126 116/132/132
f 116/132/132 110/127/127 112/133/133
f 117/29/29 111/27/27 119/134/134
f 119/134/134 113/129/129 120/135/135
f 120/135/135 114/130/130 121/136/136
f 121/136/136 115/131/131 122/137/137
f 122/137/137 116/132/132 118/138/138
f 123/31/31 117/29/29 125/139/139
f 125/139/139 119/134/134 126/140/140
f 126/140/140 120/135/135 127/141/141
f 127/141/141 121/136/136 128/142/142
f 128/142/142 122/137/137 124/143/143
f 129/33/33 123/31/31 131/144/144
f 131/144/144 125/139/139 132/145/145
f 132/145/145 126/140/140 133/146/146
f 133/146/146 127/141/141 134/147/147
f 134/147/147 128/142/142 130/148/148
f 135/35/35 129/33/33 137/149/149
f 137/149/149 131/144/144 138/150/150
f 138/150/150 132/145/145 139/151/151
f 139/151/151 133/146/146 140/152/152
f 140/152/152 134/147/147 136/153/153
f 141/37/37 135/35/35 143/154/154
f 143/154/154 137/149/149 144/155/155
f 144/155/155 138/150/150 145/156/156
f 145/156/156 139/151/151 146/157/157
f 146/157/157 140/152/152 142/158/158
f 147/39/39 141/37/37 149/159/159
f 149/159/159 143/154/154 150/160/160
f 150/160/160 144/155/155 151/161/161
f 151/161/161 145/156/156 152/162/162
f 152/162/162 146/157/157 148/163/163
f 153/41/41 147/39/39 149/159/159
f 155/164/164 149/159/159 156/165/165
f 156/165/165 150/160/160 151/161/161
f 157/166/166 151/161/161 158/167/167
f 158/167/167 152/162/162 154/168/168
f 159/43/43 153/41/41 161/169/169
f 161/169/169 155/164/164 162/170/170
f 162/170/170 156/165/165 163/171/171
f 163/171/171 157/166/166 164/172/172
f 164/172/172 158/167/167 160/173/173
f 165/45/45 159/43/43 167/174/174
f 167/174/174 161/169/169 168/175/175
f 168/175/175 162/170/170 169/176/176
f 169/176/176 163/171/171 170/177/177
f 170/177/177 164/172/172 166/178/178
f 171/47/47 165/45/45 173/179/179
f 173/179/179 167/174/174 174/180/180
f 174/180/180 168/175/175 175/181/181
f 175/181/181 169/176/176 176/182/182
f 176/182/182 170/177/177 172/183/183
f 177/49/49 171/47/47 179/184/184
f 179/184/184 173/179/179 180/185/185
f 180/185/185 174/180/180 181/186/186
f 181/186/186 175/181/181 182/187/187
f 182/187/187 176/182/182 178/188/188
f 183/51/51 177/49/49 185/189/189
f 185/189/189 179/184/184 186/190/190
f 186/190/190 180/185/185 187/191/191
f 187/191/191 181/186/186 188/192/192
f 188/192/192 182/187/187 184/193/193
f 189/53/53 183/51/51 191/194/194
f 191/194/194 185/189/189 192/195/195
f 192/195/195 186/190/190 193/196/196
f 193/196/196 187/191/191 194/197/197
f 194/197/197 188/192/192 190/198/198
f 195/55/55 189/53/53 197/199/199
f 197/199/199 191/194/194 198/200/200
f 198/200/200 192/195/195 199/201/201
f 199/201/201 193/196/196 200/202/202
f 200/202/202 194/197/197 196/203/203
f 201/57/57 195/55/55 203/204/204
f 203/204/204 197/199/199 204/205/205
f 204/205/205 198/200/200 205/206/206
f 205/206/206 199/201/201 206/207/207
f 206/207/207 200/202/202 202/208/208
f 207/59/59 201/57/57 209/209/209
f 209/209/209 203/204/204 210/210/210
f 210/210/210 204/205/205 211/211/211
f 211/211/211 205/206/206 212/212/212
f 212/212/212 206/207/207 208/213/213
f 213/61/61 207/59/59 215/214/214
f 215/214/214 209/209/209 216/215/215
f 216/215/215 210/210/210 211/211/211
f 217/216/216 211/211/211 212/212/212
f 218/217/217 212/212/212 214/218/218
f 219/2/2 213/61/61 221/219/219
f 221/219/219 215/214/214 222/220/220
f 222/220/220 216/215/215 223/221/221
f 223/221/221 217/216/216 224/222/222
f 224/222/222 218/217/217 220/223/223
f 33/67/67 219/2/2 35/69/69
f 35/69/69 221/219/219 36/71/71
f 36/71/71 222/220/220 37/73/73
f 37/73/73 223/221/221 38/75/75
f 38/75/75 224/222/222 34/65/65
f 1/3/3 33/67/67 2/62/62
f 219/2/2 33/67/67 1/3/3
f 45/5/5 51/7/7 4/6/6
f 51/7/7 57/9/9 5/8/8
f 57/9/9 63/11/11 6/10/10
f 63/11/11 69/13/13 7/12/12
f 69/13/13 75/15/15 8/14/14
f 75/15/15 81/17/17 9/16/16
f 81/17/17 87/19/19 10/18/18
f 87/19/19 93/21/21 11/20/20
f 93/21/21 99/23/23 12/22/22
f 99/23/23 105/25/25 13/24/24
f 105/25/25 111/27/27 14/26/26
f 111/27/27 117/29/29 15/28/28
f 117/29/29 123/31/31 16/30/30
f 123/31/31 129/33/33 17/32/32
f 129/33/33 135/35/35 18/34/34
f 135/35/35 141/37/37 19/36/36
f 141/37/37 147/39/39 20/38/38
f 147/39/39 153/41/41 21/40/40
f 153/41/41 159/43/43 22/42/42
f 159/43/43 165/45/45 23/44/44
f 165/45/45 171/47/47 24/46/46
f 171/47/47 177/49/49 25/48/48
f 177/49/49 183/51/51 26/50/50
f 183/51/51 189/53/53 27/52/52
f 189/53/53 195/55/55 28/54/54
f 195/55/55 201/57/57 29/56/56
f 201/57/57 207/59/59 30/58/58
f 207/59/59 213/61/61 31/60/60
f 213/61/61 219/2/2 32/1/1
f 39/63/63 45/5/5 3/4/4
f 34/65/65 220/223/223 46/66/66
f 220/223/223 214/218/218 46/66/66
f 214/218/218 208/213/213 46/66/66
f 208/213/213 202/208/208 46/66/66
f 202/208/208 196/203/203 46/66/66
f 196/203/203 190/198/198 46/66/66
f 190/198/198 184/193/193 46/66/66
f 184/193/193 178/188/188 46/66/66
f 178/188/188 172/183/183 46/66/66
f 172/183/183 166/178/178 46/66/66
f 166/178/178 160/173/173 46/66/66
f 160/173/173 154/168/168 46/66/66
f 154/168/168 148/163/163 46/66/66
f 148/163/163 142/158/158 46/66/66
f 142/158/158 136/153/153 46/66/66
f 82/108/108 94/118/118 88/113/113
f 82/108/108 100/123/123 94/118/118
f 82/108/108 106/128/128 100/123/123
f 76/103/103 106/128/128 82/108/108
f 70/98/98 106/128/128 76/103/103
f 64/93/93 106/128/128 70/98/98
f 64/93/93 112/133/133 106/128/128
f 64/93/93 118/138/138 112/133/133
f 64/93/93 124/143/143 118/138/138
f 52/84/84 64/93/93 58/224/224
f 52/84/84 124/143/143 64/93/93
f 130/148/148 124/143/143 52/84/84
f 136/153/153 130/148/148 46/66/66
f 130/148/148 52/84/84 46/66/66
f 2/62/62 3/4/4 32/1/1
f 3/4/4 4/6/6 32/1/1
f 4/6/6 5/8/8 32/1/1
f 5/8/8 6/10/10 32/1/1
f 6/10/10 7/12/12 32/1/1
f 7/12/12 8/14/14 32/1/1
f 8/14/14 9/16/16 32/1/1
f 9/16/16 10/18/18 32/1/1
f 10/18/18 11/20/20 32/1/1
f 11/20/20 12/22/22 32/1/1
f 12/22/22 13/24/24 32/1/1
f 27/52/52 25/48/48 26/50/50
f 13/24/24 14/26/26 15/28/28
f 32/1/1 13/24/24 15/28/28
f 18/34/34 16/30/30 17/32/32
f 18/34/34 15/28/28 16/30/30
f 32/1/1 15/28/28 18/34/34
f 21/40/40 19/36/36 20/38/38
f 21/40/40 18/34/34 19/36/36
f 32/1/1 18/34/34 21/40/40
f 24/46/46 22/42/42 23/44/44
f 31/60/60 32/1/1 21/40/40
f 27/52/52 24/46/46 25/48/48
f 27/52/52 22/42/42 24/46/46
f 30/58/58 31/60/60 21/40/40
f 29/56/56 30/58/58 21/40/40
f 28/54/54 29/56/56 21/40/40
f 27/52/52 28/54/54 22/42/42
f 28/54/54 21/40/40 22/42/42
f 33/67/67 35/69/69 41/68/68
f 35/69/69 36/71/71 42/70/70
f 36/71/71 37/73/73 43/72/72
f 37/73/73 38/75/75 44/74/74
f 38/75/75 34/65/65 40/64/64
f 39/63/63 41/68/68 47/76/76
f 41/68/68 42/70/70 48/77/77
f 42/70/70 43/72/72 49/78/78
f 43/72/72 44/74/74 50/79/79
f 44/74/74 40/64/64 46/66/66
f 45/5/5 47/76/76 53/80/80
f 54/81/81 53/80/80 48/77/77
f 48/77/77 49/78/78 55/82/82
f 49/78/78 50/79/79 56/83/83
f 50/79/79 46/66/66 52/84/84
f 51/7/7 53/80/80 59/85/85
f 53/80/80 54/81/81 60/86/86
f 54/81/81 55/82/82 61/87/87
f 55/82/82 56/83/83 62/88/88
f 58/224/224 62/88/88 52/84/84
f 57/9/9 59/85/85 65/89/89
f 59/85/85 60/86/86 66/90/90
f 60/86/86 61/87/87 67/91/91
f 61/87/87 62/88/88 68/92/92
f 62/88/88 58/224/224 64/93/93
f 63/11/11 65/89/89 71/94/94
f 65/89/89 66/90/90 72/95/95
f 66/90/90 67/91/91 73/96/96
f 67/91/91 68/92/92 74/97/97
f 68/92/92 64/93/93 70/98/98
f 69/13/13 71/94/94 77/99/99
f 71/94/94 72/95/95 78/100/100
f 72/95/95 73/96/96 79/101/101
f 73/96/96 74/97/97 80/102/102
f 74/97/97 70/98/98 76/103/103
f 75/15/15 77/99/99 83/104/104
f 77/99/99 78/100/100 84/105/105
f 78/100/100 79/101/101 85/106/106
f 79/101/101 80/102/102 86/107/107
f 80/102/102 76/103/103 82/108/108
f 81/17/17 83/104/104 89/109/109
f 83/104/104 84/105/105 90/110/110
f 84/105/105 85/106/106 91/111/111
f 92/112/112 91/111/111 86/107/107
f 86/107/107 82/108/108 88/113/113
f 87/19/19 89/109/109 95/114/114
f 89/109/109 90/110/110 96/115/115
f 90/110/110 91/111/111 97/116/116
f 91/111/111 92/112/112 98/117/117
f 92/112/112 88/113/113 94/118/118
f 93/21/21 95/114/114 101/119/119
f 102/120/120 101/119/119 96/115/115
f 96/115/115 97/116/116 103/121/121
f 104/122/122 103/121/121 98/117/117
f 98/117/117 94/118/118 100/123/123
f 99/23/23 101/119/119 107/124/124
f 108/125/125 107/124/124 102/120/120
f 102/120/120 103/121/121 109/126/126
f 110/127/127 109/126/126 104/122/122
f 104/122/122 100/123/123 106/128/128
f 105/25/25 107/124/124 113/129/129
f 107/124/124 108/125/125 114/130/130
f 108/125/125 109/126/126 115/131/131
f 109/126/126 110/127/127 116/132/132
f 110/127/127 106/128/128 112/133/133
f 111/27/27 113/129/129 119/134/134
f 113/129/129 114/130/130 120/135/135
f 114/130/130 115/131/131 121/136/136
f 115/131/131 116/132/132 122/137/137
f 116/132/132 112/133/133 118/138/138
f 117/29/29 119/134/134 125/139/139
f 119/134/134 120/135/135 126/140/140
f 120/135/135 121/136/136 127/141/141
f 121/136/136 122/137/137 128/142/142
f 122/137/137 118/138/138 124/143/143
f 123/31/31 125/139/139 131/144/144
f 125/139/139 126/140/140 132/145/145
f 126/140/140 127/141/141 133/146/146
f 127/141/141 128/142/142 134/147/147
f 128/142/142 124/143/143 130/148/148
f 129/33/33 131/144/144 137/149/149
f 131/144/144 132/145/145 138/150/150
f 132/145/145 133/146/146 139/151/151
f 133/146/146 134/147/147 140/152/152
f 134/147/147 130/148/148 136/153/153
f 135/35/35 137/149/149 143/154/154
f 137/149/149 138/150/150 144/155/155
f 138/150/150 139/151/151 145/156/156
f 139/151/151 140/152/152 146/157/157
f 140/152/152 136/153/153 142/158/158
f 141/37/37 143/154/154 149/159/159
f 143/154/154 144/155/155 150/160/160
f 144/155/155 145/156/156 151/161/161
f 145/156/156 146/157/157 152/162/162
f 146/157/157 142/158/158 148/163/163
f 155/164/164 153/41/41 149/159/159
f 149/159/159 150/160/160 156/165/165
f 157/166/166 156/165/165 151/161/161
f 151/161/161 152/162/162 158/167/167
f 152/162/162 148/163/163 154/168/168
f 153/41/41 155/164/164 161/169/169
f 155/164/164 156/165/165 162/170/170
f 156/165/165 157/166/166 163/171/171
f 157/166/166 158/167/167 164/172/172
f 158/167/167 154/168/168 160/173/173
f 159/43/43 161/169/169 167/174/174
f 161/169/169 162/170/170 168/175/175
f 162/170/170 163/171/171 169/176/176
f 163/171/171 164/172/172 170/177/177
f 164/172/172 160/173/173 166/178/178
f 165/45/45 167/174/174 173/179/179
f 167/174/174 168/175/175 174/180/180
f 168/175/175 169/176/176 175/181/181
f 169/176/176 170/177/177 176/182/182
f 170/177/177 166/178/178 172/183/183
f 171/47/47 173/179/179 179/184/184
f 173/179/179 174/180/180 180/185/185
f 174/180/180 175/181/181 181/186/186
f 175/181/181 176/182/182 182/187/187
f 176/182/182 172/183/183 178/188/188
f 177/49/49 179/184/184 185/189/189
f 179/184/184 180/185/185 186/190/190
f 180/185/185 181/186/186 187/191/191
f 181/186/186 182/187/187 188/192/192
f 182/187/187 178/188/188 184/193/193
f 183/51/51 185/189/189 191/194/194
f 185/189/189 186/190/190 192/195/195
f 186/190/190 187/191/191 193/196/196
f 187/191/191 188/192/192 194/197/197
f 188/192/192 184/193/193 190/198/198
f 189/53/53 191/194/194 197/199/199
f 191/194/194 192/195/195 198/200/200
f 192/195/195 193/196/196 199/201/201
f 193/196/196 194/197/197 200/202/202
f 194/197/197 190/198/198 196/203/203
f 195/55/55 197/199/199 203/204/204
f 197/199/199 198/200/200 204/205/205
f 198/200/200 199/201/201 205/206/206
f 199/201/201 200/202/202 206/207/207
f 200/202/202 196/203/203 202/208/208
f 201/57/57 203/204/204 209/209/209
f 203/204/204 204/205/205 210/210/210
f 204/205/205 205/206/206 211/211/211
f 205/206/206 206/207/207 212/212/212
f 206/207/207 202/208/208 208/213/213
f 207/59/59 209/209/209 215/214/214
f 209/209/209 210/210/210 216/215/215
f 217/216/216 216/215/215 211/211/211
f 218/217/217 217/216/216 212/212/212
f 212/212/212 208/213/213 214/218/218
f 213/61/61 215/214/214 221/219/219
f 215/214/214 216/215/215 222/220/220
f 216/215/215 217/216/216 223/221/221
f 217/216/216 218/217/217 224/222/222
f 218/217/217 214/218/218 220/223/223
f 219/2/2 221/219/219 35/69/69
f 221/219/219 222/220/220 36/71/71
f 222/220/220 223/221/221 37/73/73
f 223/221/221 224/222/222 38/75/75
f 224/222/222 220/223/223 34/65/65
f 33/67/67 39/63/63 2/62/62
